{
  "project_info": {
    "project_number": "760261984000",
    "firebase_url": "https://cloudnotification-1cfb4.firebaseio.com",
    "project_id": "cloudnotification-1cfb4",
    "storage_bucket": "cloudnotification-1cfb4.appspot.com"
  },
  "client": [
    {
      "client_info": {
        "mobilesdk_app_id": "1:760261984000:android:ce4550b969294034",
        "android_client_info": {
          "package_name": "com.hermes"
        }
      },
      "oauth_client": [
        {
          "client_id": "760261984000-8ku5kdtjqh7qbfi958kgetia6cscuq29.apps.googleusercontent.com",
          "client_type": 3
        }
      ],
      "api_key": [
        {
          "current_key": "AIzaSyBZ-EdaA9xB7ioND3SyQTZPROAUbs28Fj4"
        }
      ],
      "services": {
        "appinvite_service": {
          "other_platform_oauth_client": [
            {
              "client_id": "760261984000-8ku5kdtjqh7qbfi958kgetia6cscuq29.apps.googleusercontent.com",
              "client_type": 3
            }
          ]
        }
      }
    }
  ],
  "configuration_version": "1"
}